Visualize dados 📊
…
---

## Terminologia do conjunto de dados

- Cada linha é uma **observação**
- Cada coluna é uma **variável**

.small[

```r
starwars
```

```
## # A tibble: 87 x 14
##   name  height  mass hair_color skin_color eye_color birth_year sex   gender homeworld species films
##   <chr>  <int> <dbl> <chr>      <chr>      <chr>          <dbl> <chr> <chr>  <chr>     <chr>   <lis>
## 1 Luke~    172    77 blond      fair       blue            19   male  mascu~ Tatooine  Human   <chr~
## 2 C-3PO    167    75 <NA>       gold       yellow         112   none  mascu~ Tatooine  Droid   <chr~
## 3 R2-D2     96    32 <NA>       white, bl~ red             33   none  mascu~ Naboo     Droid   <chr~
## 4 Dart~    202   136 none       white      yellow          41.9 male  mascu~ Tatooine  Human   <chr~
## 5 Leia~    150    49 brown      light      brown           19   fema~ femin~ Alderaan  Human   <chr~
## 6 Owen~    178   120 brown, gr~ light      blue            52   male  mascu~ Tatooine  Human   <chr~
## # ... with 81 more rows, and 2 more variables: vehicles <list>, starships <list>
```
…
---

class: middle

# Por que visualizamos?   

---

## Dados: `datasaurus_dozen`

Abaixo está uma amostra do conjunto de dados: `datasaurus_dozen`

```
## # A tibble: 142 x 8
##   away_x away_y bullseye_x bullseye_y circle_x circle_y dino_x dino_y
##    <dbl>  <dbl>      <dbl>      <dbl>    <dbl>    <dbl>  <dbl>  <dbl>
## 1   32.3   61.4       51.2       83.3     56.0     79.3   55.4   97.2
## 2   53.4   26.2       59.0       85.5     50.0     79.0   51.5   96.0
## 3   63.9   30.8       51.9       85.8     51.3     82.4   46.2   94.5
## 4   70.3   82.5       48.2       85.0     51.2     79.2   42.8   91.4
## 5   34.1   45.7       41.7       84.0     44.4     78.2   40.8   88.3
## 6   67.7   37.1       37.9       82.6     45.0     77.9   38.7   84.9
## # ... with 136 more rows
```

---

## Resumo Estatístico

.small[

```r
datasaurus_dozen %>%
  group_by(dataset) %>%
  summarise(r = cor(x, y))
```

```
## # A tibble: 13 x 2
##   dataset        r
##   <chr>      <dbl>
## 1 away     -0.0641
## 2 bullseye -0.0686
## 3 circle   -0.0683
## 4 dino     -0.0645
## 5 dots     -0.0603
## 6 h_lines  -0.0617
## # ... with 7 more rows
```
…
